<svg width="103" height="304" viewBox="0 0 103 304" fill="none" xmlns="http://www.w3.org/2000/svg">
    <path opacity="0.2" d="M25.8651 289.975C14.416 290.418 -3.7203 290.964 0.674253 295.604C5.06881 300.243 11.7281 303.071 22.4517 303.771C35.0076 304.588 46.8892 300.546 56.334 300.462C66.7832 300.364 74.5353 304.168 83.3942 303.995C93.704 303.795 89.3327 299.356 99.4564 296.266C109.58 293.177 97.6939 284.785 67.9923 288.332C55.9759 289.746 46.5032 289.181 25.8651 289.975Z" fill="black"/>
    <path d="M34.6449 103.847C34.6449 103.847 44.4385 44.8061 43.3968 29.642C42.2203 12.6017 49.1632 1.64757 64.0954 0.186708C79.0276 -1.27416 93.9365 5.60078 94.7085 27.4344C95.6711 55.2982 94.7085 114.816 94.7085 114.816C94.7085 114.816 83.9383 122.517 59.5242 118.279C36.4957 109.682 34.6449 103.847 34.6449 103.847Z" fill="url(#paint0_linear)"/>
    <path d="M83.8453 144.159C64.0489 140.262 57.2268 140.182 39.258 144.126C39.337 144.775 37.7513 148.243 37.9745 156.756C38.393 163.262 33.2684 219.681 33.2684 219.681L49.3306 285.956C48.1401 288.971 54.911 291.744 56.7711 287.188L43.6525 220.32C43.6525 220.32 51.8697 181.185 52.051 163.771C52.9067 163.832 64.1047 164.704 67.3971 164.625C68.7922 176.727 68.8898 200.181 69.2572 222.07L77.8836 287.328C78.8834 290.185 83.929 290.185 83.836 286.75L80.7947 221.407C80.7947 221.407 82.7711 178.576 82.0735 162.763C83.5151 159.622 84.1057 151.221 83.8453 144.159Z" fill="#222222"/>
    <g style="mix-blend-mode:overlay">
        <path style="mix-blend-mode:overlay" d="M82.0829 184.358C82.2131 178.291 82.2782 172.466 82.2224 167.757C79.8972 167.673 71.6987 167.696 68.0389 172.013C68.2621 175.575 68.4295 179.602 68.569 183.943C71.2476 183.495 78.1254 182.627 82.0829 184.358Z" fill="url(#paint1_linear)"/>
    </g>
    <path style="mix-blend-mode:overlay" d="M36.6352 175.925L35.7656 183.122C35.7656 183.122 46.2939 181.105 50.2514 185.343L52.2603 176.326C52.2603 176.326 40.1229 172.625 36.6352 175.925Z" fill="url(#paint2_linear)"/>
    <path d="M38.6488 135.473C38.6488 135.473 34.5565 140.052 33.0172 140.252C31.478 140.453 30.6037 141.466 32.4127 141.867C34.2217 142.269 39.9927 139.916 40.4578 137.9" fill="#F7C89D"/>
    <path d="M55.8039 62.9573C51.9023 57.2678 48.5959 69.2021 31.2223 85.2623C27.781 88.4407 19.4523 96.5012 14.7648 100.991C10.0773 105.481 16.4575 108.314 19.0989 106.391C26.6324 100.921 61.4168 71.1344 55.8039 62.9573Z" fill="#F7C89D"/>
    <path d="M47.9309 63.3773C47.9309 63.3773 32.4685 82.4153 26.1348 86.8118L34.8774 96.6412C34.8774 96.6412 51.5023 81.6545 57.6128 70.3923C60.9518 64.2315 52.8555 58.2573 47.996 63.3027L47.9309 63.3773Z" fill="#1E294C"/>
    <path d="M14.9787 109.901C21.2287 116.79 41.1693 138.264 41.1693 138.264L46.7497 136.682C46.7497 136.682 26.5627 108.505 20.6753 102.681C14.5881 96.6364 10.3981 104.851 14.9787 109.901Z" fill="#F7C89D"/>
    <path d="M46.3963 48.0032C42.783 44.8761 41.453 38.2158 45.5732 37.0583C49.6933 35.9009 50.1165 45.2728 50.1165 45.2728C50.1165 45.2728 52.5486 53.2819 46.3963 48.0032Z" fill="#F7C89D"/>
    <path d="M47.0148 68.8894C47.5821 75.335 53.4462 87.5866 53.4462 87.5866C53.4462 87.5866 80.3808 70.7236 79.7763 66.2804C79.7763 66.2804 80.818 51.0136 81.3388 34.8368C81.7201 22.8698 79.1252 7.56573 65.737 7.56573C52.3487 7.56573 44.5826 10.4455 44.8105 23.2245C44.9547 31.6257 47.0148 68.8894 47.0148 68.8894Z" fill="#F7C89D"/>
    <g style="mix-blend-mode:overlay" opacity="0.27">
        <path style="mix-blend-mode:overlay" opacity="0.27" d="M66.7275 70.943C79.2415 64.3248 77.7627 54.6074 78.3533 51.8584C78.7439 50.0241 80.0367 48.2272 80.8505 47.2331C80.3436 58.0286 79.7809 66.2757 79.7809 66.2757C80.3855 70.719 53.2043 85.6823 53.2043 85.6823C53.2043 85.6823 47.2845 75.5123 47.0194 68.88C52.7719 74.6768 58.6824 75.1996 66.7275 70.943Z" fill="url(#paint3_linear)"/>
    </g>
    <path d="M67.5552 74.2474C67.5552 74.2474 53.2462 77.6312 47.7774 72.6886L52.7905 83.6661L67.5552 74.2474Z" fill="#1E294C"/>
    <path d="M35.8075 178.627C35.8075 178.627 91.6764 180.648 90.8859 173.493C90.0953 166.338 86.7378 146.768 82.4176 137.886C78.3254 129.485 91.6811 67.3492 80.218 60.4089C80.218 60.4089 69.6758 73.7154 53.4554 81.9392C48.4842 74.5135 46.559 62.3972 46.559 62.3972C44.7454 71.1577 36.7933 116.146 39.365 132.407C37.7373 144.565 35.7424 166.375 35.8075 178.627Z" fill="#1E294C"/>
    <path d="M65.8718 26.0203C65.8124 25.9126 65.7808 25.7917 65.7798 25.6686C65.7789 25.5455 65.8087 25.4241 65.8665 25.3155C65.9243 25.2069 66.0082 25.1146 66.1107 25.0469C66.2132 24.9792 66.3309 24.9384 66.4531 24.9281C68.0017 24.8161 69.6432 25.0495 72.0335 25.6702C73.8985 26.2192 75.6369 27.1329 77.1489 28.3586C77.601 28.7864 78.0251 29.2432 78.4184 29.7261C78.4184 29.7261 74.6981 27.6725 71.9358 27.2478C68.4528 26.7017 68.3551 26.5757 66.7647 26.697C66.6247 26.7064 66.485 26.6759 66.3616 26.609C66.2381 26.5421 66.1361 26.4416 66.0671 26.319L65.8718 26.0203Z" fill="#42210B"/>
    <path d="M53.2508 27.005C53.2802 26.8784 53.2808 26.7468 53.2524 26.62C53.2241 26.4932 53.1676 26.3744 53.0871 26.2725C53.0066 26.1707 52.9043 26.0884 52.7877 26.0318C52.6711 25.9751 52.5433 25.9457 52.4138 25.9456C50.8508 25.974 49.3074 26.3002 47.8658 26.907C46.7125 27.3744 45.7213 28.1712 45.0151 29.1987C44.7986 29.5533 44.6326 29.9366 44.5222 30.3375C45.643 29.4879 46.9016 28.839 48.2424 28.4192C50.5165 27.7938 51.3675 27.6491 52.4277 27.6585C52.6232 27.6595 52.8133 27.5942 52.967 27.473C53.1206 27.3518 53.2289 27.1819 53.2741 26.991L53.2508 27.005Z" fill="#42210B"/>
    <path d="M76.0374 31.971C75.4422 32.1484 71.3871 31.4436 70.843 31.3689C68.2946 31.0142 65.8718 32.3724 65.4254 34.4027C64.9789 36.4329 66.681 38.3745 69.2247 38.7293C71.7684 39.084 74.2005 37.7258 74.647 35.6955C74.8034 34.9675 74.6893 34.2073 74.3261 33.5579C75.1399 33.1892 76.0374 31.971 76.0374 31.971Z" fill="#3E3E3D"/>
    <path d="M69.7688 38.7992C72.2318 38.7992 74.2284 37.207 74.2284 35.2428C74.2284 33.2786 72.2318 31.6863 69.7688 31.6863C67.3058 31.6863 65.3091 33.2786 65.3091 35.2428C65.3091 37.207 67.3058 38.7992 69.7688 38.7992Z" fill="white"/>
    <path d="M64.6395 38.2719L64.5279 40.6055L74.2005 41.0723L74.3075 38.846C74.3075 38.846 73.5913 37.5718 69.1921 37.3571C64.7929 37.1424 64.6395 38.2719 64.6395 38.2719Z" fill="#F7C89D"/>
    <g opacity="0.05">
        <path opacity="0.05" d="M72.2474 39.1773C71.9544 39.5741 70.4338 39.1493 69.1503 39.294C67.8668 39.4387 65.2254 39.6907 65.4951 39.1867C66.4915 38.5089 67.6676 38.1465 68.8713 38.1465C70.075 38.1465 71.251 38.5089 72.2474 39.1867" fill="#222221"/>
    </g>
    <path d="M69.6665 36.2929C70.4293 36.2929 71.0476 35.6723 71.0476 34.9068C71.0476 34.1412 70.4293 33.5206 69.6665 33.5206C68.9037 33.5206 68.2853 34.1412 68.2853 34.9068C68.2853 35.6723 68.9037 36.2929 69.6665 36.2929Z" fill="#6C4326"/>
    <path d="M71.1482 34.8586C71.9106 34.836 72.5181 34.4563 72.505 34.0106C72.4919 33.5649 71.8632 33.2218 71.1007 33.2444C70.3382 33.267 69.7308 33.6466 69.7439 34.0924C69.757 34.5381 70.3857 34.8812 71.1482 34.8586Z" fill="white"/>
    <path d="M55.1528 34.8228C54.8924 32.9558 52.7765 31.6023 50.4281 31.8124C49.7166 31.873 46.8148 32.7038 46.1312 32.6618C46.2216 33.1878 46.4931 33.6652 46.8985 34.0107C46.6648 34.4995 46.5807 35.0468 46.6567 35.5835C46.9217 37.4505 49.0376 38.804 51.3814 38.5939C53.7251 38.3839 55.4179 36.6943 55.1528 34.8228Z" fill="#3E3E3D"/>
    <path d="M51.1489 38.6453C53.3859 38.6453 55.1993 37.1972 55.1993 35.4108C55.1993 33.6245 53.3859 32.1764 51.1489 32.1764C48.9119 32.1764 47.0984 33.6245 47.0984 35.4108C47.0984 37.1972 48.9119 38.6453 51.1489 38.6453Z" fill="white"/>
    <path d="M55.9155 37.9265L56.0131 40.0641L47.224 40.4515L47.1357 38.4259C47.1357 38.4259 47.7913 37.2684 51.786 37.0957C55.7806 36.923 55.9155 37.9265 55.9155 37.9265Z" fill="#F7C89D"/>
    <g opacity="0.05">
        <path opacity="0.05" d="M47.131 39.406C47.4565 39.7327 48.8191 39.14 50.0328 39.1027C51.2465 39.0653 53.7531 38.958 53.4182 38.5239C52.4027 38.0226 51.2605 37.8386 50.1397 37.9959C49.0188 38.1532 47.9707 38.6444 47.131 39.406Z" fill="#222221"/>
    </g>
    <path d="M52.0929 36.3209C52.8095 36.3209 53.3903 35.7379 53.3903 35.0188C53.3903 34.2996 52.8095 33.7166 52.0929 33.7166C51.3764 33.7166 50.7955 34.2996 50.7955 35.0188C50.7955 35.7379 51.3764 36.3209 52.0929 36.3209Z" fill="#6C4326"/>
    <path d="M53.3491 34.9934C54.0654 34.9721 54.6361 34.6166 54.6238 34.1992C54.6115 33.7818 54.0209 33.4606 53.3047 33.4818C52.5884 33.503 52.0178 33.8586 52.03 34.276C52.0423 34.6934 52.6329 35.0146 53.3491 34.9934Z" fill="white"/>
    <g style="mix-blend-mode:overlay" opacity="0.39">
        <path style="mix-blend-mode:overlay" opacity="0.39" d="M62.2445 3.09912C66.1276 2.80041 82.5943 17.6844 81.6922 29.404C78.1765 27.1964 69.6293 21.4696 68.8573 17.6004C68.8573 17.6004 60.4867 21.0216 54.7203 20.8302L54.4087 19.7334C54.4087 19.7334 46.7962 20.7415 44.8244 24.7041C44.8244 24.144 44.7965 23.6446 44.7872 23.2245C44.5826 10.4455 58.3569 3.39783 62.2445 3.09912Z" fill="url(#paint4_linear)"/>
    </g>
    <g opacity="0.05">
        <path opacity="0.05" d="M57.6361 51.3403C59.2916 52.4791 63.9559 52.1197 65.3556 51.0416C65.3556 51.9004 62.0725 56.0076 57.6361 51.3403Z" fill="#222221"/>
    </g>
    <path d="M75.5293 7.50552C75.5293 7.50552 83.4552 13.5133 81.1301 23.548C72.2945 21.2144 74.6196 21.9145 70.2019 20.981C63.617 19.5897 57.1809 20.6084 53.6932 21.2144C50.2054 21.8203 48.1128 22.3812 43.4625 24.9482C40.9746 7.59986 60.6482 -2.06245 75.5293 7.50552Z" fill="#42210B"/>
    <path opacity="0.1" d="M80.7761 9.67068C80.7761 9.67068 92.9646 16.9097 90.7185 26.501C90.7185 26.501 88.4956 18.3565 85.9426 15.4768C83.3105 12.5084 80.7761 9.67068 80.7761 9.67068Z" fill="black"/>
    <path opacity="0.1" d="M64.1744 2.33365C64.1744 2.33365 76.363 9.57263 74.1168 19.1639C74.1168 19.1639 71.894 11.0195 69.341 8.13977C66.7089 5.17137 64.1744 2.33365 64.1744 2.33365Z" fill="black"/>
    <path opacity="0.1" d="M66.8001 2.75281C66.8001 2.75281 79.5071 9.0298 78.0024 18.766C78.0024 18.766 75.1622 10.8172 72.3961 8.14305C69.5445 5.38655 66.8001 2.75281 66.8001 2.75281Z" fill="black"/>
    <path opacity="0.1" d="M78.237 9.62866C78.237 9.62866 86.7192 17.0683 87.3052 27.4391C85.1967 24.3275 83.4624 20.9764 82.1387 17.4557C80.0879 11.8783 78.237 9.62866 78.237 9.62866Z" fill="black"/>
    <path d="M82.9664 47.3311C86.5983 44.204 87.9097 37.5298 83.7802 36.3909C79.6507 35.2521 79.2462 44.5961 79.2462 44.5961C79.2462 44.5961 76.8326 52.6098 82.9664 47.3311Z" fill="#F7C89D"/>
    <path opacity="0.05" d="M80.6273 43.0652C80.6273 43.0652 80.9993 42.253 81.6829 42.2997C82.3665 42.3464 83.2733 42.6964 84.236 40.5448C84.2242 40.3306 84.1604 40.1225 84.0502 39.9386C83.94 39.7548 83.7866 39.6008 83.6035 39.49C83.4732 39.3947 83.3233 39.3299 83.1647 39.3004C83.0062 39.2708 82.8431 39.2774 82.6874 39.3195C82.5317 39.3615 82.3874 39.4381 82.2651 39.5436C82.1427 39.649 82.0455 39.7806 81.9805 39.9287C81.4876 40.6988 80.4506 42.0524 80.6273 43.0652Z" fill="#222221"/>
    <path d="M35.8075 178.627C35.8075 178.627 91.6764 180.648 90.8859 173.493C90.0953 166.338 86.7378 146.768 82.4176 137.886C78.9997 130.885 87.733 86.4478 84.0639 67.8999C80.1157 74.3408 72.5357 88.0113 71.3545 99.7262C69.7455 115.674 75.2375 130.036 74.7074 132.229C73.5681 136.943 69.8804 135.123 68.0016 137.363C66.56 139.072 74.3726 136.085 77.186 143.958C79.9995 151.832 84.4312 169.801 82.2177 171.416C80.0041 173.031 40.774 174.851 39.3696 174.244C38.5047 173.876 37.1933 168.438 36.305 164.275C35.9935 169.628 35.8075 174.632 35.8075 178.627Z" fill="#171A23" fill-opacity="0.72"/>
    <path d="M80.8738 48.0919C81.4927 48.0919 81.9945 47.5883 81.9945 46.967C81.9945 46.3458 81.4927 45.8422 80.8738 45.8422C80.2548 45.8422 79.753 46.3458 79.753 46.967C79.753 47.5883 80.2548 48.0919 80.8738 48.0919Z" fill="white"/>
    <path d="M52.3254 47.1397C54.6039 47.1966 56.8804 46.9645 59.1009 46.449C60.9936 46.9157 61.8167 46.3696 63.1653 45.9822C68.2807 46.0989 71.4568 44.582 71.4568 44.582C71.4568 44.582 68.741 48.3859 60.9843 48.8619C55.2086 49.2633 52.3254 47.1397 52.3254 47.1397Z" fill="#F55F5F"/>
    <path d="M50.4467 46.239C50.8208 46.5492 51.2522 46.7823 51.7162 46.9251C52.172 47.0834 52.6381 47.2097 53.1113 47.3031C54.0701 47.4741 55.0399 47.5755 56.0131 47.6065C57.9586 47.6563 59.9053 47.5752 61.84 47.3638C63.7778 47.1933 65.6996 46.8718 67.5878 46.4024C68.5268 46.1556 69.4314 45.7919 70.2803 45.3195C70.6982 45.0776 71.1004 44.8094 71.4848 44.5168C71.662 44.3612 71.8005 44.1662 71.8893 43.9474C71.9916 43.728 72.0149 43.4806 72.1404 43.2566C72.066 43.462 72.0474 43.7233 71.9544 43.9567C71.869 44.1969 71.7251 44.4119 71.5359 44.5821C71.1449 44.8796 70.7348 45.1509 70.3082 45.3942C69.4482 45.8663 68.5328 46.2285 67.5831 46.4724C65.6883 46.9346 63.7602 47.2467 61.8167 47.4058C59.8786 47.6126 57.9289 47.689 55.9806 47.6345C55.0054 47.6027 54.0339 47.4982 53.0741 47.3218C52.601 47.2281 52.1348 47.1018 51.679 46.9438C51.2093 46.7978 50.7731 46.5599 50.3955 46.2437V46.2157C50.3955 46.2157 50.3955 46.2157 50.4234 46.2157L50.4467 46.239Z" fill="#704C2E"/>
    <path d="M82.2409 67.7319C75.6979 64.9035 78.9206 79.7828 72.5218 103.479C71.2522 108.174 69.327 119.044 67.1785 123.786C66.1183 130.32 72.4799 129.55 73.2798 127.707C77.1395 118.862 91.6485 71.7971 82.2409 67.7319Z" fill="#F7C89D"/>
    <path opacity="0.2" d="M70.936 110.279C71.5359 107.6 72.0707 105.145 72.5218 103.479C72.638 103.04 72.7543 102.606 72.8659 102.172C74.9353 102.097 79.0973 102.312 80.5343 105.005C79.4879 108.967 78.3812 112.771 77.3348 116.141C76.2048 114.564 74.0006 111.917 70.936 110.279Z" fill="url(#paint5_linear)"/>
    <path d="M73.1309 120.734C66.2485 110.466 58.687 92.3472 58.687 92.3472L52.7579 92.5106C52.7579 92.5106 61.5284 117.742 66.1601 126.582C66.5536 127.356 67.1708 127.993 67.9308 128.409C68.6908 128.826 69.5583 129.002 70.4198 128.916C73.7727 128.533 75.5026 124.286 73.1309 120.734Z" fill="#F7C89D"/>
    <path d="M75.3352 74.3595C74.5493 80.3663 71.9684 98.9328 69.3456 105.056L82.4316 108.841C82.4316 108.841 89.6768 80.7957 86.2449 69.0481C86.017 68.2789 85.5899 67.5841 85.0072 67.0347C84.4245 66.4852 83.7069 66.1007 82.9278 65.9204C82.1487 65.7401 81.3359 65.7704 80.5723 66.0083C79.8087 66.2462 79.1216 66.6831 78.5811 67.2745L78.4835 67.3818C76.7576 69.3363 75.6603 71.7684 75.3352 74.3595Z" fill="#1E294C"/>
    <path d="M58.6871 92.3472C58.6871 92.3472 57.864 82.7699 53.3857 80.679C48.9074 78.588 42.29 72.0631 41.9691 74.3128C41.6483 76.5624 49.4097 81.4071 50.3397 82.3685C51.2698 83.33 48.6098 88.9027 52.7532 92.5106C55.4225 94.4708 57.4687 94.6389 58.6871 92.3472Z" fill="#F7C89D"/>
    <path d="M52.637 83.1946C52.2417 82.9939 48.661 82.2612 47.8658 83.722C47.0706 85.1829 44.6105 89.5655 44.1083 89.8922C43.6061 90.2189 44.1316 91.6425 45.8661 89.7522C47.6007 87.8619 48.2424 86.6344 48.9493 85.9857C49.233 85.7243 51.1628 86.6438 51.1628 86.6438" fill="#F7C89D"/>
    <path d="M51.7534 84.1981C51.2884 84.2448 47.9169 85.5983 48.0331 87.2552C48.1494 88.9121 48.4982 93.9341 48.2424 94.4802C47.9866 95.0262 49.2143 95.9364 49.6375 93.402C50.0607 90.8677 49.9305 89.4908 50.1723 88.5527C50.27 88.1793 52.3858 87.8946 52.3858 87.8946" fill="#F7C89D"/>
    <path d="M53.2509 86.6017C52.8137 86.6671 49.4794 88.1653 49.6748 89.8128C49.8701 91.4604 50.7955 95.4509 50.5769 96.0064C50.3584 96.5618 51.6093 97.4065 51.9209 94.8722C52.2324 92.3379 51.6697 91.9645 51.8697 91.0217C51.9488 90.6436 54.0507 90.2656 54.0507 90.2656" fill="#F7C89D"/>
    <path d="M43.1596 277.784C43.4247 277.807 53.6368 277.653 53.5903 279.679C53.5438 281.704 53.4787 283.959 53.6786 283.977C53.8786 283.996 58.7103 283.977 58.7103 283.977C58.7103 283.977 59.8682 290.003 59.7613 291.198L59.6869 293.065C59.6869 293.065 54.0228 295.398 52.8183 295.832C51.6139 296.266 33.1242 298.539 25.8465 299.099C18.5687 299.659 13.4394 298.325 13.4394 298.325C13.4394 298.325 14.2067 292.752 16.4621 291.487C18.7175 290.222 27.9996 289.839 27.9996 289.839L40.2299 285.074L43.1596 277.784Z" fill="#4D4D4D"/>
    <path d="M13.4208 298.357C13.4208 298.357 18.5362 299.72 25.8279 299.132C33.1196 298.544 51.6186 296.257 52.7998 295.865C53.9809 295.473 59.6683 293.097 59.6683 293.097L59.7473 291.23C59.7473 291.137 59.7473 291.016 59.7473 290.866C57.678 291.893 53.316 294.049 52.3068 294.521C50.9722 295.146 29.4365 297.554 26.3255 297.736C23.2144 297.919 21.7868 297.466 21.7868 297.466C21.8736 296.447 22.12 295.448 22.5169 294.507C23.14 293.079 25.6326 292.005 25.6326 292.005C26.5161 290.997 26.4743 290.367 25.8651 289.993C22.9819 290.194 18.0154 290.661 16.4435 291.538C14.1881 292.785 13.4208 298.357 13.4208 298.357Z" fill="white"/>
    <path d="M54.6366 291.557C56.1494 291.557 57.3757 290.084 57.3757 288.267C57.3757 286.449 56.1494 284.976 54.6366 284.976C53.1239 284.976 51.8976 286.449 51.8976 288.267C51.8976 290.084 53.1239 291.557 54.6366 291.557Z" fill="white"/>
    <path d="M28.0321 289.709C28.0321 289.709 31.1571 289.219 32.5522 290.357C33.9473 291.496 33.8636 290.292 32.7522 289.597C31.8532 289.046 30.7805 288.856 29.7481 289.065C29.1268 289.112 28.5317 289.335 28.0321 289.709Z" fill="white"/>
    <path d="M31.1571 288.551C31.1571 288.551 34.2915 288.057 35.6494 289.195C37.0072 290.334 36.9607 289.13 35.8493 288.439C34.9524 287.883 33.8781 287.691 32.8452 287.902C32.157 288.014 31.4129 288.257 31.1571 288.551Z" fill="white"/>
    <path d="M34.4403 287.212C34.4403 287.212 37.5746 286.717 38.9325 287.856C40.2904 288.995 40.2439 287.79 39.1325 287.1C38.2343 286.547 37.1601 286.358 36.1283 286.572C35.4261 286.675 34.6867 286.918 34.4403 287.212Z" fill="white"/>
    <path d="M38.2442 285.826C38.2442 285.826 41.3786 285.359 42.7364 286.474C44.0943 287.59 44.0478 286.404 42.9364 285.714C42.0386 285.16 40.9659 284.967 39.9323 285.172C39.3201 285.228 38.7356 285.455 38.2442 285.826Z" fill="white"/>
    <path d="M40.2485 284.327C40.2485 284.327 43.2247 283.221 44.7779 284.061C46.3311 284.901 46.0521 283.735 44.8244 283.277C43.8339 282.917 42.7445 282.946 41.7738 283.357C41.1851 283.531 40.6567 283.867 40.2485 284.327Z" fill="white"/>
    <path d="M73.3495 290.25C72.8287 291.039 71.9126 292.878 71.9126 294.586C71.9126 296.294 71.6475 298.53 71.7777 299.057C71.9079 299.585 75.577 300.766 79.6368 300.766C83.6965 300.766 90.8998 299.449 92.0764 298.138C93.2529 296.826 91.6858 292.406 91.9462 291.17C92.2066 289.933 87.1005 286.176 86.3146 285.517C85.5287 284.859 85.5055 280.463 85.5055 280.463L75.3631 281.476L75.8979 286.358L73.3495 290.25Z" fill="#4D4D4D"/>
    <path d="M71.7777 299.057C71.9126 299.585 75.5771 300.766 79.6368 300.766C83.6965 300.766 90.8999 299.449 92.0764 298.138C92.4949 297.671 92.5647 296.812 92.4949 295.851C91.6765 297.442 88.1841 298.227 87.9376 298.264C87.6912 298.301 86.7378 293.933 85.8031 293.219C84.8684 292.505 80.5994 292.864 79.0881 293.685C77.5767 294.507 77.7953 298.955 77.6186 299.09C77.4418 299.225 76.8187 299.314 75.4841 299.267C74.6284 299.239 72.8985 298.441 71.7638 297.867C71.725 298.263 71.7297 298.662 71.7777 299.057Z" fill="white"/>
    <path d="M76.7303 291.856C76.6606 292.448 77.9301 291.459 81.6876 291.188C85.445 290.918 86.0449 291.72 86.6727 291.235C87.3982 290.666 85.0916 290.152 81.4876 290.4C78.7904 290.577 76.8094 290.946 76.7303 291.856Z" fill="white"/>
    <path d="M77.3395 289.681C77.2837 290.199 78.3905 289.335 81.6782 289.097C84.966 288.859 85.4822 289.564 86.0309 289.135C86.6634 288.64 84.6358 288.201 81.5015 288.407C79.1624 288.561 77.4325 288.906 77.3395 289.681Z" fill="white"/>
    <path d="M78.2231 288.136C78.1766 288.551 79.0741 287.856 81.7341 287.669C84.3941 287.482 84.8172 288.047 85.259 287.702C85.7752 287.3 84.1429 286.941 81.5899 287.109C79.6972 287.23 78.2975 287.506 78.2231 288.136Z" fill="white"/>
    <path d="M78.8509 286.572C78.8137 286.908 79.5252 286.353 81.6411 286.199C83.7569 286.045 84.0778 286.498 84.4312 286.227C84.7847 285.956 83.5477 285.625 81.5341 285.76C80.0181 285.868 78.9067 286.073 78.8509 286.572Z" fill="white"/>
    <path d="M78.4975 285.125C78.4556 285.457 79.1671 284.906 81.2877 284.752C83.4082 284.598 83.7244 285.051 84.0778 284.752C84.4313 284.453 83.1943 284.15 81.176 284.285C79.66 284.411 78.5533 284.617 78.4975 285.125Z" fill="white"/>
    <defs>
        <linearGradient id="paint0_linear" x1="64.8906" y1="-0.00106812" x2="64.8906" y2="119.552" gradientUnits="userSpaceOnUse">
            <stop offset="0.171875" stop-color="#3B1E0A"/>
            <stop offset="0.75" stop-color="#3B1E0A" stop-opacity="0.9"/>
            <stop offset="0.947917" stop-color="#7E5320" stop-opacity="0.92"/>
        </linearGradient>
        <linearGradient id="paint1_linear" x1="74.8144" y1="185.829" x2="75.2875" y2="171.159" gradientUnits="userSpaceOnUse">
            <stop stop-opacity="0"/>
            <stop offset="1"/>
        </linearGradient>
        <linearGradient id="paint2_linear" x1="1577.86" y1="4408.06" x2="1593.26" y2="4238.26" gradientUnits="userSpaceOnUse">
            <stop stop-opacity="0"/>
            <stop offset="1"/>
        </linearGradient>
        <linearGradient id="paint3_linear" x1="3467.34" y1="5522.4" x2="5928.56" y2="5522.4" gradientUnits="userSpaceOnUse">
            <stop stop-opacity="0"/>
            <stop offset="1"/>
        </linearGradient>
        <linearGradient id="paint4_linear" x1="3603.86" y1="918.396" x2="6537.13" y2="918.396" gradientUnits="userSpaceOnUse">
            <stop stop-opacity="0"/>
            <stop offset="1"/>
        </linearGradient>
        <linearGradient id="paint5_linear" x1="57980.2" y1="3402.33" x2="58096" y2="3293.83" gradientUnits="userSpaceOnUse">
            <stop stop-opacity="0"/>
            <stop offset="1"/>
        </linearGradient>
    </defs>
</svg>